{
    "code": 6000,
    "data": [
        {
            "id": 10894454,
            "on_time_status": "On track",
            "goal_type": "Personal",
            "goal_success": null,
            "goal_creator": {
                "id": 531,
                "user_role": null,
                "email": "fasaj71344@lineacr.com",
                "first_name": "Shahruk",
                "last_name": "khan",
                "title": null,
                "start_day": "Monday",
                "end_day": "Friday",
                "working_days": 5,
                "working_days_list": "monday,tuesday,wednesday,thursday,friday",
                "weekly_working_hours": 45.0,
                "start_time": "10:00 AM",
                "end_time": "07:00 PM",
                "daily_working_hours": 9.0,
                "lunch_start_time": "01:00 PM",
                "lunch_end_time": "02:00 PM",
                "lunch_breaks": 0.0,
                "holidays": 0.0,
                "timezone": "Asia/Calcutta",
                "created_at": "2024-11-07T11:39:14.321787Z",
                "updated_at": "2025-01-09T07:40:51.582434Z",
                "default_organization": 447,
                "stripe_customer_id": "cus_RApkjNGytJSzoR",
                "profile_picture": null,
                "logged_in": true,
                "is_online": false,
                "user_type": "direct_paid_user",
                "default_question_set": 40,
                "default_coach": 1,
                "auth_user": 537
            },
            "goal_owner": {
                "id": 531,
                "user_role": null,
                "email": "fasaj71344@lineacr.com",
                "first_name": "Shahruk",
                "last_name": "khan",
                "title": null,
                "start_day": "Monday",
                "end_day": "Friday",
                "working_days": 5,
                "working_days_list": "monday,tuesday,wednesday,thursday,friday",
                "weekly_working_hours": 45.0,
                "start_time": "10:00 AM",
                "end_time": "07:00 PM",
                "daily_working_hours": 9.0,
                "lunch_start_time": "01:00 PM",
                "lunch_end_time": "02:00 PM",
                "lunch_breaks": 0.0,
                "holidays": 0.0,
                "timezone": "Asia/Calcutta",
                "created_at": "2024-11-07T11:39:14.321787Z",
                "updated_at": "2025-01-09T07:40:51.582434Z",
                "default_organization": 447,
                "stripe_customer_id": "cus_RApkjNGytJSzoR",
                "profile_picture": null,
                "logged_in": true,
                "is_online": false,
                "user_type": "direct_paid_user",
                "default_question_set": 40,
                "default_coach": 1,
                "auth_user": 537
            },
            "goal_parent": null,
            "thread": null,
            "show_chat": false,
            "goal_completed_percent": 80.0,
            "goal_on_time_percent": 0,
            "goal_win_percent": 90,
            "goal_risk_average": "Medium",
            "goal_status": "On track",
            "name": "Improve Customer Satisfaction",
            "description": "The main goal of this strategic plan is to improve customer satisfaction for our rapidly growing technology company. By focusing on enhancing the customer journey, gathering and acting on customer feedback, and personalizing the user experience, we aim to create a positive and seamless customer service experience. This will help us retain and expand our customer base, ultimately leading to increased revenues and business growth.",
            "deadline": null,
            "deadline_status_avg": null,
            "ontime_status_avg": null,
            "target_avg": null,
            "success_avg": null,
            "created_at": "2025-01-03T07:11:55.174866Z",
            "updated_at": "2025-01-03T07:11:55.174888Z",
            "goal_accepted": true,
            "total_time_aligned": 0.0,
            "total_completed_time": 0.0,
            "goal_archived": false,
            "is_superparent": true,
            "order": 2,
            "status": "Active",
            "organization": 447,
            "team": null,
            "goal_share_user": []
        },
        {
            "id": 1089645,
            "on_time_status": "On track",
            "goal_type": "Personal",
            "goal_success": null,
            "goal_creator": {
                "id": 531,
                "user_role": null,
                "email": "fasaj71344@lineacr.com",
                "first_name": "Shahruk",
                "last_name": "khan",
                "title": null,
                "start_day": "Monday",
                "end_day": "Friday",
                "working_days": 5,
                "working_days_list": "monday,tuesday,wednesday,thursday,friday",
                "weekly_working_hours": 45.0,
                "start_time": "10:00 AM",
                "end_time": "07:00 PM",
                "daily_working_hours": 9.0,
                "lunch_start_time": "01:00 PM",
                "lunch_end_time": "02:00 PM",
                "lunch_breaks": 0.0,
                "holidays": 0.0,
                "timezone": "Asia/Calcutta",
                "created_at": "2024-11-07T11:39:14.321787Z",
                "updated_at": "2025-01-09T07:40:51.582434Z",
                "default_organization": 447,
                "stripe_customer_id": "cus_RApkjNGytJSzoR",
                "profile_picture": null,
                "logged_in": true,
                "is_online": false,
                "user_type": "direct_paid_user",
                "default_question_set": 40,
                "default_coach": 1,
                "auth_user": 537
            },
            "goal_owner": {
                "id": 531,
                "user_role": null,
                "email": "fasaj71344@lineacr.com",
                "first_name": "Shahruk",
                "last_name": "khan",
                "title": null,
                "start_day": "Monday",
                "end_day": "Friday",
                "working_days": 5,
                "working_days_list": "monday,tuesday,wednesday,thursday,friday",
                "weekly_working_hours": 45.0,
                "start_time": "10:00 AM",
                "end_time": "07:00 PM",
                "daily_working_hours": 9.0,
                "lunch_start_time": "01:00 PM",
                "lunch_end_time": "02:00 PM",
                "lunch_breaks": 0.0,
                "holidays": 0.0,
                "timezone": "Asia/Calcutta",
                "created_at": "2024-11-07T11:39:14.321787Z",
                "updated_at": "2025-01-09T07:40:51.582434Z",
                "default_organization": 447,
                "stripe_customer_id": "cus_RApkjNGytJSzoR",
                "profile_picture": null,
                "logged_in": true,
                "is_online": false,
                "user_type": "direct_paid_user",
                "default_question_set": 40,
                "default_coach": 1,
                "auth_user": 537
            },
            "goal_parent": null,
            "thread": null,
            "show_chat": false,
            "goal_completed_percent": 46,
            "goal_on_time_percent": 0,
            "goal_win_percent": 0,
            "goal_risk_average": "High",
            "goal_status": "At risk",
            "name": "Distribution Network Expanding",
            "description": "",
            "deadline": null,
            "deadline_status_avg": null,
            "ontime_status_avg": null,
            "target_avg": null,
            "success_avg": null,
            "created_at": "2025-01-03T09:41:00.678530Z",
            "updated_at": "2025-01-03T09:41:00.678548Z",
            "goal_accepted": false,
            "total_time_aligned": 0.0,
            "total_completed_time": 0.0,
            "goal_archived": false,
            "is_superparent": false,
            "order": 3,
            "status": "At risk",
            "organization": 447,
            "team": 148,
            "goal_share_user": []
        },
        {
            "id": 1085995,
            "on_time_status": "On track",
            "goal_type": "Personal",
            "goal_success": null,
            "goal_creator": {
                "id": 531,
                "user_role": null,
                "email": "fasaj71344@lineacr.com",
                "first_name": "Shahruk",
                "last_name": "khan",
                "title": null,
                "start_day": "Monday",
                "end_day": "Friday",
                "working_days": 5,
                "working_days_list": "monday,tuesday,wednesday,thursday,friday",
                "weekly_working_hours": 45.0,
                "start_time": "10:00 AM",
                "end_time": "07:00 PM",
                "daily_working_hours": 9.0,
                "lunch_start_time": "01:00 PM",
                "lunch_end_time": "02:00 PM",
                "lunch_breaks": 0.0,
                "holidays": 0.0,
                "timezone": "Asia/Calcutta",
                "created_at": "2024-11-07T11:39:14.321787Z",
                "updated_at": "2025-01-09T07:40:51.582434Z",
                "default_organization": 447,
                "stripe_customer_id": "cus_RApkjNGytJSzoR",
                "profile_picture": null,
                "logged_in": true,
                "is_online": false,
                "user_type": "direct_paid_user",
                "default_question_set": 40,
                "default_coach": 1,
                "auth_user": 537
            },
            "goal_owner": {
                "id": 531,
                "user_role": null,
                "email": "fasaj71344@lineacr.com",
                "first_name": "Shahruk",
                "last_name": "khan",
                "title": null,
                "start_day": "Monday",
                "end_day": "Friday",
                "working_days": 5,
                "working_days_list": "monday,tuesday,wednesday,thursday,friday",
                "weekly_working_hours": 45.0,
                "start_time": "10:00 AM",
                "end_time": "07:00 PM",
                "daily_working_hours": 9.0,
                "lunch_start_time": "01:00 PM",
                "lunch_end_time": "02:00 PM",
                "lunch_breaks": 0.0,
                "holidays": 0.0,
                "timezone": "Asia/Calcutta",
                "created_at": "2024-11-07T11:39:14.321787Z",
                "updated_at": "2025-01-09T07:40:51.582434Z",
                "default_organization": 447,
                "stripe_customer_id": "cus_RApkjNGytJSzoR",
                "profile_picture": null,
                "logged_in": true,
                "is_online": false,
                "user_type": "direct_paid_user",
                "default_question_set": 40,
                "default_coach": 1,
                "auth_user": 537
            },
            "goal_parent": null,
            "thread": null,
            "show_chat": false,
            "goal_completed_percent": 18,
            "goal_on_time_percent": 0,
            "goal_win_percent": 0,
            "goal_risk_average": "High",
            "goal_status": "Failing",
            "name": "Quality Control",
            "description": "",
            "deadline": null,
            "deadline_status_avg": null,
            "ontime_status_avg": null,
            "target_avg": null,
            "success_avg": null,
            "created_at": "2025-01-03T09:42:12.511452Z",
            "updated_at": "2025-01-03T09:42:12.511471Z",
            "goal_accepted": false,
            "total_time_aligned": 0.0,
            "total_completed_time": 0.0,
            "goal_archived": false,
            "is_superparent": false,
            "order": 4,
            "status": "Inactive",
            "organization": 447,
            "team": 148,
            "goal_share_user": []
        },
        {
            "id": 1089734,
            "on_time_status": "On track",
            "goal_type": "Personal",
            "goal_success": null,
            "goal_creator": {
                "id": 531,
                "user_role": null,
                "email": "fasaj71344@lineacr.com",
                "first_name": "Shahruk",
                "last_name": "khan",
                "title": null,
                "start_day": "Monday",
                "end_day": "Friday",
                "working_days": 5,
                "working_days_list": "monday,tuesday,wednesday,thursday,friday",
                "weekly_working_hours": 45.0,
                "start_time": "10:00 AM",
                "end_time": "07:00 PM",
                "daily_working_hours": 9.0,
                "lunch_start_time": "01:00 PM",
                "lunch_end_time": "02:00 PM",
                "lunch_breaks": 0.0,
                "holidays": 0.0,
                "timezone": "Asia/Calcutta",
                "created_at": "2024-11-07T11:39:14.321787Z",
                "updated_at": "2025-01-09T07:40:51.582434Z",
                "default_organization": 447,
                "stripe_customer_id": "cus_RApkjNGytJSzoR",
                "profile_picture": null,
                "logged_in": true,
                "is_online": false,
                "user_type": "direct_paid_user",
                "default_question_set": 40,
                "default_coach": 1,
                "auth_user": 537
            },
            "goal_owner": {
                "id": 531,
                "user_role": null,
                "email": "fasaj71344@lineacr.com",
                "first_name": "Shahruk",
                "last_name": "khan",
                "title": null,
                "start_day": "Monday",
                "end_day": "Friday",
                "working_days": 5,
                "working_days_list": "monday,tuesday,wednesday,thursday,friday",
                "weekly_working_hours": 45.0,
                "start_time": "10:00 AM",
                "end_time": "07:00 PM",
                "daily_working_hours": 9.0,
                "lunch_start_time": "01:00 PM",
                "lunch_end_time": "02:00 PM",
                "lunch_breaks": 0.0,
                "holidays": 0.0,
                "timezone": "Asia/Calcutta",
                "created_at": "2024-11-07T11:39:14.321787Z",
                "updated_at": "2025-01-09T07:40:51.582434Z",
                "default_organization": 447,
                "stripe_customer_id": "cus_RApkjNGytJSzoR",
                "profile_picture": null,
                "logged_in": true,
                "is_online": false,
                "user_type": "direct_paid_user",
                "default_question_set": 40,
                "default_coach": 1,
                "auth_user": 537
            },
            "goal_parent": null,
            "thread": null,
            "show_chat": false,
            "goal_completed_percent": 3,
            "goal_on_time_percent": 0,
            "goal_win_percent": 0,
            "goal_risk_average": "Inactive",
            "goal_status": "Failed",
            "name": "Quality Control Enhancing",
            "description": "",
            "deadline": null,
            "deadline_status_avg": null,
            "ontime_status_avg": null,
            "target_avg": null,
            "success_avg": null,
            "created_at": "2025-01-03T09:42:12.511452Z",
            "updated_at": "2025-01-03T09:42:12.511471Z",
            "goal_accepted": false,
            "total_time_aligned": 0.0,
            "total_completed_time": 0.0,
            "goal_archived": false,
            "is_superparent": false,
            "order": 4,
            "status": "Failed",
            "organization": 447,
            "team": 148,
            "goal_share_user": []
        },
        {
            "id": 10897389,
            "on_time_status": "On track",
            "goal_type": "Personal",
            "goal_success": null,
            "goal_creator": {
                "id": 531,
                "user_role": null,
                "email": "fasaj71344@lineacr.com",
                "first_name": "Shahruk",
                "last_name": "khan",
                "title": null,
                "start_day": "Monday",
                "end_day": "Friday",
                "working_days": 5,
                "working_days_list": "monday,tuesday,wednesday,thursday,friday",
                "weekly_working_hours": 45.0,
                "start_time": "10:00 AM",
                "end_time": "07:00 PM",
                "daily_working_hours": 9.0,
                "lunch_start_time": "01:00 PM",
                "lunch_end_time": "02:00 PM",
                "lunch_breaks": 0.0,
                "holidays": 0.0,
                "timezone": "Asia/Calcutta",
                "created_at": "2024-11-07T11:39:14.321787Z",
                "updated_at": "2025-01-09T07:40:51.582434Z",
                "default_organization": 447,
                "stripe_customer_id": "cus_RApkjNGytJSzoR",
                "profile_picture": null,
                "logged_in": true,
                "is_online": false,
                "user_type": "direct_paid_user",
                "default_question_set": 40,
                "default_coach": 1,
                "auth_user": 537
            },
            "goal_owner": {
                "id": 531,
                "user_role": null,
                "email": "fasaj71344@lineacr.com",
                "first_name": "Shahruk",
                "last_name": "khan",
                "title": null,
                "start_day": "Monday",
                "end_day": "Friday",
                "working_days": 5,
                "working_days_list": "monday,tuesday,wednesday,thursday,friday",
                "weekly_working_hours": 45.0,
                "start_time": "10:00 AM",
                "end_time": "07:00 PM",
                "daily_working_hours": 9.0,
                "lunch_start_time": "01:00 PM",
                "lunch_end_time": "02:00 PM",
                "lunch_breaks": 0.0,
                "holidays": 0.0,
                "timezone": "Asia/Calcutta",
                "created_at": "2024-11-07T11:39:14.321787Z",
                "updated_at": "2025-01-09T07:40:51.582434Z",
                "default_organization": 447,
                "stripe_customer_id": "cus_RApkjNGytJSzoR",
                "profile_picture": null,
                "logged_in": true,
                "is_online": false,
                "user_type": "direct_paid_user",
                "default_question_set": 40,
                "default_coach": 1,
                "auth_user": 537
            },
            "goal_parent": null,
            "thread": null,
            "show_chat": false,
            "goal_completed_percent": 18,
            "goal_on_time_percent": 0,
            "goal_win_percent": 0,
            "goal_risk_average": "High",
            "goal_status": "Inactive",
            "name": "Quality Control",
            "description": "",
            "deadline": null,
            "deadline_status_avg": null,
            "ontime_status_avg": null,
            "target_avg": null,
            "success_avg": null,
            "created_at": "2025-01-03T09:42:12.511452Z",
            "updated_at": "2025-01-03T09:42:12.511471Z",
            "goal_accepted": false,
            "total_time_aligned": 0.0,
            "total_completed_time": 0.0,
            "goal_archived": false,
            "is_superparent": false,
            "order": 4,
            "status": "Inactive",
            "organization": 447,
            "team": 148,
            "goal_share_user": []
        }
    ],
    "message": "Goal found successfully",
    "count": 12,
    "next": "http://stagingbe.plansom.com/goals/goal-list?completed_percent=&goal_owner=&name=&on_time_percent=&page=2&risk_average=&status=&win_percent=",
    "previous": null
}